Cookbook - Splink
…
linker = Linker(df, settings, db_api, set_up_basic_logging=False)

result = linker.inference.predict().as_duckdbpyrelation()

# Since result is a DuckDBPyRelation, we can use all the usual DuckDB API
# functions on it.

# For example, we can use the `sort` function to sort the results,
# or could use result.to_parquet() to write to a parquet file.
result.sort("match_weight")

┌─────────────────────┬──────────────────────┬─────────────┬───┬───────────────┬────────────┬────────────┬───────────┐
│    match_weight     │  match_probability   │ unique_id_l │ … │ gamma_surname │   dob_l    │   dob_r    │ match_key │
│       double        │        double        │    int64    │   │     int32     │  varchar   │  varchar   │  varchar  │
├─────────────────────┼──────────────────────┼─────────────┼───┼───────────────┼────────────┼────────────┼───────────┤
│  -11.83278901894715 │ 0.000274066864295451 │         758 │ … │             0 │ 2002-09-15 │ 2002-09-15 │ 0         │
│ -10.247826518225994 │  0.0008217501639050… │         670 │ … │             0 │ 2006-12-05 │ 2006-12-05 │ 0         │
│  -9.662864017504837 │  0.0012321189988629… │         558 │ … │             0 │ 2020-02-11 │ 2020-02-11 │ 0         │
│  -9.470218939562441 │  0.0014078881864458… │         259 │ … │             1 │ 1983-03-07 │ 1983-03-07 │ 0         │
│  -8.470218939562441 │ 0.002811817648042493 │         644 │ … │            -1 │ 1992-02-06 │ 1992-02-06 │ 0         │
│  -8.287568102831404 │  0.0031901106569634… │         393 │ … │             3 │ 1991-05-06 │ 1991-04-12 │ 1         │
│  -8.287568102831404 │  0.0031901106569634… │         282 │ … │             3 │ 2004-12-02 │ 2002-02-25 │ 1         │
│  -8.287568102831404 │  0.0031901106569634… │         282 │ … │             3 │ 2004-12-02 │ 1993-03-01 │ 1         │
│  -8.287568102831404 │  0.0031901106569634… │         531 │ … │             3 │ 1987-09-11 │ 2000-09-03 │ 1         │
│  -8.287568102831404 │  0.0031901106569634… │         531 │ … │             3 │ 1987-09-11 │ 1990-10-06 │ 1         │
│           ·         │            ·         │          ·  │ · │             · │     ·      │     ·      │ ·         │
│           ·         │            ·         │          ·  │ · │             · │     ·      │     ·      │ ·         │
│           ·         │            ·         │          ·  │ · │             · │     ·      │     ·      │ ·         │
│   5.337135982495163 │   0.9758593366351407 │         554 │ … │             3 │ 2020-02-11 │ 2030-02-08 │ 1         │
│   5.337135982495163 │   0.9758593366351407 │         774 │ … │             3 │ 2027-04-21 │ 2017-04-23 │ 1         │
│   5.337135982495163 │   0.9758593366351407 │         874 │ … │             3 │ 2020-06-23 │ 2019-05-23 │ 1         │
│   5.337135982495163 │   0.9758593366351407 │         409 │ … │             3 │ 2017-05-03 │ 2008-05-05 │ 1         │
│   5.337135982495163 │   0.9758593366351407 │         415 │ … │             3 │ 2002-02-25 │ 1993-03-01 │ 1         │
│   5.337135982495163 │   0.9758593366351407 │         740 │ … │             3 │ 2005-09-18 │ 2006-09-14 │ 1         │
│   5.337135982495163 │   0.9758593366351407 │         417 │ … │             3 │ 2002-02-24 │ 1992-02-28 │ 1         │
│   5.337135982495163 │   0.9758593366351407 │         534 │ … │             3 │ 1974-02-28 │ 1975-03-31 │ 1         │
│   5.337135982495163 │   0.9758593366351407 │         286 │ … │             3 │ 1985-01-05 │ 1986-02-04 │ 1         │
│   5.337135982495163 │   0.9758593366351407 │         172 │ … │             3 │ 2012-07-06 │ 2012-07-09 │ 1         │
├─────────────────────┴──────────────────────┴─────────────┴───┴───────────────┴────────────┴────────────┴───────────┤
│ 1800 rows (20 shown)                                                                          13 columns (7 shown) │
└────────────────────────────────────────────────────────────────────────────────────────────────────────────────────┘
…
